Houston,
San Antonio,
Dallas,
Austin,
Fort Worth,
El Paso,
Arlington,
Corpus Christi,
Plano,
Laredo,
Lubbock,
Garland,
Irving,
Amarillo,
Grand Prairie,
Brownsville,
Pasadena,
Mesquite,
McKinney,
McAllen,
Killeen,
Waco,
Carrollton,
Beaumont,
Abilene,
Frisco,
Denton,
Midland,
Wichita Falls,
Odessa,
Round Rock,
Richardson,
Tyler,
Lewisville,
College Station,
San Angelo,
Pearland,
Allen,
League City,
Longview,
Sugar Land,
Edinburg,
Mission,
Bryan,
Baytown,
Pharr,
Missouri City